{
    "agreement": {
        "header": "เงื่อนไขและข้อตกลง",
        "detail": "- บริษัท พีทีจี เอ็นเนอยี จำกัด (มหาชน) ผู้ออกบัตรเรียกว่า “บริษัทฯ” ผู้ถือบัตรเรียกว่า “สมาชิก” สมาชิกขอให้ทางบริษัทฯ ออกบัตรสมาชิกพีที แมกซ์ (รวมไปถึงการออกบัตรทดแทนกรณีที่บัตรชำรุด หรือสูญหาย) ให้แก่สมาชิก<br />- บัตรสมาชิก พีที แมกซ์ ใช้เพื่อสะสมคะแนนจากการเติมน้ำมัน ซื้อสินค้าและบริการอื่นๆ ในแต่ละครั้งตามเงื่อนไขที่บริษัทฯ กำหนดไว้ในแต่ละช่วงระยะเวลาเท่านั้นและใช้ได้กับสถานีบริการน้ำมัน พีที ทั่วประเทศที่เข้าร่วมโครงการบัตรสมาชิก พีที แมกซ์<br />- คะแนนสะสมจากการเติมน้ำมันจะคิดตามจำนวนลิตรที่เติมในแต่ละครั้ง 1 ลิตรรับ 1 คะแนน สะสมคะแนนได้ไม่จำกัด ไม่กำหนดขั้นต่ำในการเติมน้ำมันสำหรับการสะสมคะแนนปกติ และบริษัทฯ ขอสงวนสิทธิ์บันทึกคะแนนสะสมเป็นตัวเลขจำนวนเต็มไม่มีทศนิยม<br />- บริษัทฯ ขอสงวนสิทธิ์จำกัดปริมาณการเติมน้ำมันต่อครั้ง<br />- คะแนนสะสมในบัตรสมาชิก พีที แมกซ์ นี้ไม่สามารถแลก เปลี่ยน หรือทอนเป็นเงินสดได้<br />- คะแนนสะสมและสิทธิประโยชน์ในบัตร พีที แมกซ์ นี้ไม่สามารถโอนไปเป็นของบัตรอื่นได้ (ยกเว้นในกรณีออกบัตรทดแทนบัตรเดิม)<br />- สมาชิกตรวจสอบคะแนนสะสมได้ที่สถานีบริการน้ำมัน พีที หรือ <span class='comment'> PT Call Center โทร.1614 </span><br />- คะแนนสะสมมีอายุ 3 ปีนับจากปีที่สมัคร โดยคะแนนสะสมที่ไม่ได้นำมาแลกรางวัลจะหมดอายุในวันที่ 31 ธันวาคมของปีปฏิทินที่ 3 และจะถูกหักออกจากคะแนนสะสมรวมของสมาชิกโดยอัตโนมัติ เช่น คะแนนสะสมในช่วงวันที่ 1 มกราคม – 31 ธันวาคม 2560 จะหมดอายุในวันที่ 31 ธันวาคม 2563<br />- กรณีคะแนนสะสมไม่ถูกต้อง ให้ท่านสมาชิกติดต่อ <span class='comment'> PT Call Center โทร.1614 </span> ภายใน 30 วัน พร้อมทั้งแสดงสลิปบัตรสะสมคะแนนหรือใบเสร็จรับเงิน เพื่อยืนยันว่ามีการใช้จ่ายเพื่อสะสมคะแนนจริง มิฉะนั้นจะถือว่าสละสิทธิ์ และบริษัทฯ ขอสงวนสิทธิ์ที่จะรับหรือปฏิเสธการนำหลักฐานดังกล่าวมาพิจารณาให้คะแนนขึ้นอยู่กับดุลยพินิจของบริษัทฯ",
        "condition_title": "ยอมรับเงื่อนไขและข้อตกลง",
        "accept_button": "ยินยอม"
    },
    "formprofile1": {
        "confirmDate": "ตกลง",
        "cancelDate": "ยกเลิก",
        "idcard_inputforeigners": "กรอกเลขหนังสือเดินทาง",
        "idcard_input": "กรอกเลขที่บัตรประชาชน",
        "name_input": "กรอกชื่อ",
        "lastname_input": "กรอกนามสกุล",
        "email_input": "กรอกอีเมล",
        "phone_input": "กรอกหมายเลขโทรศัพท์มือถือ",
        "header_profile": "ข้อมูลส่วนตัว",
        "title_idnumber": "หมายเลขบัตรประชาชน/หนังสือเดินทาง",
        "title_foreigners": "กรณีเป็นชาวต่างชาติ ( เลขที่หนังสือเดินทาง )",
        "title_user": "ข้อมูลผู้ใช้งาน",
        "title_nametitle": "คำนำหน้าชื่อ",
        "title_nametitle_list": "<select class='form-control' id='exampleFormControlSelect1'><option>นาย</option><option>นาง</option><option>นางสาว</option></select>",
        "title_name": "ชื่อ",
        "title_lastname": "นามสกุล",
        "title_dateofbirth": "วัน เดือน ปีเกิด",
        "title_dateofbirth_select": "เลือกวัน/เดือน/ปีเกิด",
        "title_sex": "เพศ",
        "title_sexlist": "<select class='form-control' id='exampleFormControlSelect1'><option>ชาย</option><option>หญิง</option></select>",
        "title_status": "สถานภาพ",
        "title_statuslist": "<select class='form-control' id='exampleFormControlSelect1'><option>โสด</option><option>แต่งงานแล้ว</option><option>ไม่ระบุ</option></select>",
        "title_email": "อีเมล",
        "title_phonenumber": "หมายเลขโทรศัพท์มือถือ",
        "button_nextstep": "ดำเนินการต่อ",
        "title_name_remark": "อื่นๆ โปรดระบุ",
        "SELECT_TITLE": "กรุณาเลือกคำนำหน้าชื่อ",
        "SELECT_GENDER": "กรุณาเลือกเพศ",
        "SELECT_MARITALSTATUS": "กรุณาเลือกสถานภาพ",
        "ALERT_CARD_NOT_USE": "เลขที่บัตรประชาชนนี้ มีการลงทะเบียนเรียบร้อยแล้ว",
        "ALERT_PASSSPORT_USE": "เลขที่หนังสือเดินทางนี้ มีการลงทะเบียนเรียบร้อยแล้ว",
        "ALERT_EMAIL_FORMAT": "รูปแบบอีเมล์ไม่ถูกต้อง",
        "ALERT_EMAIL_CANT_USE": "อีเมล์นี้ มีการลงทะเบียนเรียบร้อยแล้ว",
        "ALERT_CARD_ID": "กรุณาระบุเลขที่บัตรประชาชน",
        "ALERT_CARD_FALSE": "รูปแบบเลขที่บัตรประจำตัวประชาชนไม่ถูกต้อง",
        "ALERT_TITLE_NAME_ID": "กรุณาระบุคำนำหน้าชื่อ",
        "ALERT_TITLE_NAME_REMARK": "โปรดระบุคำนำหน้า",
        "ALERT_FNAME_TH": "กรุณากรอกชื่อจริง",
        "ALERT_LNAME_TH": "กรุณากรอกนามสกุล",
        "ALERT_GENDER_ID": "กรุณาเลือกเพศ",
        "ALERT_BIRTH_DATE": "กรุณาระบุ วัน/เดือน/ปี เกิด",
        "ALERT_BIRTH_DATE_YEAR": "อายุผู้สมัครยังไม่ถึง 7 ปีบริบูรณ์",
        "ALERT_USER_EMAIL": "กรุณากรอกอีเมล",
        "ALERT_PHONE_NO": "กรุณาระบุหมายเลขโทรศัพท์",
        "ALERT_PHONE_NOTFORMAT": "รูปแบบหมายเลขโทรศัพท์ไม่ถูกต้อง",
        "ALERT_PHONE_CANT_USE": "หมายเลขโทรศัพท์นี้ มีการลงทะเบียนเรียบร้อยแล้ว",
        "PREVENT_PHONE_NO": "กรุณากรอกเฉพาะตัวเลข",
        "ALERT_PHONE_FORMAT": "เบอร์โทรศัพท์มือถือควรขึ้นต้นด้วย 06 08 หรือ 09",
        "submitfinalform":"แก้ไขข้อมูล",
        "MARITAL_STATUS":"กรุณาระบุสถานภาพ"
    },
    "formprofile2": {
        "house_input": "กรอกบ้านเลขที่",
        "moo_input": "กรอกหมู่",
        "building_input": "กรอกหมู่บ้าน / อาคาร",
        "lane_input": "กรอกซอย",
        "road_input": "กรอกถนน",
        "postalcode_input": "รหัสไปรษณีย์",
        "additional_input": "กรอกข้อมูลเพิ่มเติม",
        "header_address": "ข้อมูลที่อยู่",
        "title_numaddress": "บ้านเลขที่",
        "title_addressbldg": "หมู่บ้าน / อาคาร",
        "title_moo": "หมู่",
        "title_lane": "ซอย",
        "title_road": "ถนน",
        "title_province": "จังหวัด",
        "title_provincelist": "<select class='form-control' id='exampleFormControlSelect1'><option>เลือกจังหวัด</option><option>กระบี่</option><option>กรุงเทพฯ</option></select>",
        "title_area": "เขต / อำเภอ",
        "title_arealist": "<select class='form-control' id='exampleFormControlSelect1'><option>เลือกเขต / อำเภอ</option><option>คลองเตย</option><option>คลองสามวา</option></select>",
        "title_subarea": "ตำบล / แขวง",
        "title_subarealist": "<select class='form-control' id='exampleFormControlSelect1'><option>เลือกแขวง / ตำบล</option><option>คลองเตย</option><option>คลองตัน</option><option>พระโขนง</option></select>",
        "title_postcode": "รหัสไปรษณีย์",
        "title_additional": "เพิ่มเติม",
        "button_nextstep": "ดำเนินการต่อ",
        "ALERT_ADDRESS_NO": "กรุณากรอกบ้านเลขที่",
        "ALERT_ADDRESS_PROVINCE" : "กรุณาเลือกจังหวัด",
        "ALERT_ADDRESS_AMPHURE" : "กรุณาเลือกอำเภอ",
        "ALERT_ADDRESS_DISTRICT":"กรุณาเลือกตำบล",
        "ALERT_ADDRESS_POSTALCODE": "กรุณาเลือกรหัสไปรษณีย์",
        "ALERT_ADDR_OTHER":"กรุณากรอกข้อมูลที่อยู่ (เพิ่มเติม)",
        "PREVENT_MOO_NO": "กรุณากรอกเฉพาะตัวเลข",
        "ADDR_NO_PREVENT": "มี '-' ประกอบได้แค่ 1 ตัวเท่านั้น",
        "ADDR_NO_PREVENT1": "'-' ต้องไม่เป็นอักขระตัวสุดท้าย",
        "ADDR_NO_PREVENT2": "'-' ต้องไม่เป็นอักขระตัวแรก",
        "ADDR_NO_ERROR":"หากมีอักขระ '-' จะไม่มีตัวอักษรประกอบในบ้านเลขที่",
        "submitfinalform":"แก้ไขข้อมูล",
        "ADDR_ADD_ZERO": "ไม่สามารถเริ่มต้นด้วย 0",
        "ADDR_CHAR_NOT_FIRST":"ตัวอักษรเป็นตัวสุดท้ายได้เท่านั้น",
        "ALERT_CHARACTER_MORE":"มีตัวอักษร ประกอบได้แค่ 1 ตัวอักษรและต้องเป็นตัวสุดท้ายเท่านั้น",
        "ALERT_SYMBOL_CHAR":"ไม่สามารถมีทั้งตัวอักษรและอักขระ '-' อยู่ในบ้านเลขที่ได้",
        "ALERT_SHOW_NOT_NO":"รูปแบบบ้านเลขที่ไม่ถูกต้อง"
    },
    "formprofile3": {
        "image": "รูปภาพ",
        "check_remind": "ให้ข้อมูลเพิ่มเติมเพื่อสิทธิประโยชน์ที่ตรงกับความต้องการ",
        "must_remind": "<div class='remind'>*เอกสารเพิ่มเติมระบบมีข้อจำกัด คือ<div>1. อัพโหลดรูปไม่ได้ไม่เกิน 3 รูป</div></div>",
        "button_nextstep": "ดำเนินการต่อ",
        "button_finish": "ส่งข้อมูลเพื่อสมัครสมาชิกบัตร แมกซ์ การ์ด",
        "image_oversize": "* ไม่สามารถอัพโหลดรูปภาพได้ อาจจะเกิดจากไฟล์มีขนาดเกิน 3 MB",
        "submitfinalform":"แก้ไขข้อมูล",
        "pdpacondition":" รับทราบและยอมรับใน",
        "pdpacondition1":"เงื่อนไขการใช้บัตรสมาชิก แมกซ์ การ์ด",
        "pdpacondition2":"และ",
        "pdpacondition3":"ข้อมูลคุ้มครองส่วนบุคคล",
        "pdpacon":"<div class='t-indent'>เพื่อให้ท่าน ได้ทราบถึงรายการส่งเสริมการขายต่างๆ โปรโมชั่น และการเชิญชวนให้สมาชิกเข้าร่วมกิจกรรมกับบริษัทในลักษณะที่เห็นว่าเป็นประโยชน์หรือเป็นรายการที่สมาชิกให้ความสนใจ ขอให้ท่านให้ความยินยอม</div>",
        "pdpacon1":"ส่งข้อมูลข่าวสาร การโฆษณาที่เกี่ยวกับสินค้า หรือบริการ",
        "pdpacon2":"เสนอโปรโมชั่นสินค้าและบริการ โดยตรงถึงสมาชิก",
        "pdpacon3":"เชิญชวนเข้าร่วมกิจกรรมต่าง ๆ ที่สมาชิกได้ระบุความสนใจหรือความชื่นชอบในขณะสมัครสมาชิก",
        "pdpacon4":"วิเคราะห์การใช้สินค้าหรือบริการของสมาชิก เพื่อจัดทำโปรโมชั่น หรือส่วนลดในสินค้าหรือบริการ",
        "agree":"ยินยอม",
        "notagree":"ไม่ยินยอม",
        "activity":"กิจกรรม",
        "CK_AGREE_CONDITIONS":"กรุณาเลือกสถานะความยินยอมของกิจกรรมให้ครบทุกข้อ"
    },
    "formprofile4": {
        "etc_input": "อื่นๆโปรดระบุข้อมูล",
        "title_typecars": "ประเภทรถ",
        "title_typecarslist": "<select class='form-control' id='exampleFormControlSelect1'><option>เลือกประเภทรถ</option><option>รถเก๋ง</option><option>รถกระบะบ้าน</option><option>รถกระบะพาณิชย์ / อุตสาหกรรม</option><option>รถบรรทุกพาณิชย์ / อุตสาหกรรม</option></select>",
        "title_brand": "ยี่ห้อรถ",
        "title_brandlist": "<select class='form-control' id='exampleFormControlSelect1'><option>เลือกยี่ห้อรถ</option><option>โตโยต้า (Toyota)</option><option>นิสสัน (Nissan)</option><option>มาสด้า (Mazda)</option><option>ฟอร์ด (Ford)</option></select>",
        "title_career": "อาชีพ",
        "title_careerlist": "<select class='form-control' id='exampleFormControlSelect1'><option>เลือกอาชีพ</option><option>เกษตรกร</option><option>รับราชการ / รัฐวิสาหกิจ</option><option>พนักงานบริษัทเอกชน</option><option>เจ้าของธุรกิจ</option></select>",
        "title_education": "การศึกษา",
        "title_educationlist": "<select class='form-control' id='exampleFormControlSelect1'><option>เลือกระดับการศึกษา</option><option>ประถมศึกษา</option><option>มัธยมศึกษาตอนต้น</option><option>มัธยมศึกษาตอนปลายและอาชีวศึกษา</option><option>อุดมศึกษาและเทียบเท่า</option><option>ปริญญาตรี</option><option>ปริญญาโท</option><option>ปริญญาเอก</option></select>",
        "title_income": "รายได้ต่อเดือน",
        "title_incomelist": "<select class='form-control' id='exampleFormControlSelect1'><option>เลือกรายได้ของคุณ</option><option>ต่ำกว่า 10,000 บาท</option><option>10,001 - 20,000 บาท</option><option>20,001 - 30,000 บาท</option><option>30,001 - 50,000 บาท</option><option>มากกว่า 50,000 บาท ขึ้นไป</option></select>",
        "title_remindnews": "ท่านยินดีรับข่าวสาร/โปรโมชั่นจากทางใด(เลือกได้มากกว่า 1 ข้อ)",
        "title_listnews": "จดหมาย",
        "title_listemail": "อีเมล",
        "title_listsms": "ข้อความทางโทรศัพท์มือถือ(SMS)",
        "title_listnonesms": "ไม่ประสงค์รับข่าวสาร",
        "title_remindpromotion": "โปรโมชั่นที่น่าสนใจ",
        "title_listfood": "อาหาร",
        "title_listravel": "ท่องเที่ยว",
        "title_listshopping": "ช้อปปิ้ง",
        "title_listbeauty": "ไลฟ์สไตล์และความงาม",
        "title_listcars": "กีฬาและรถยนต์",
        "title_listother": "อื่นๆโปรดระบุ",
        "button_nextstep": "ดำเนินการต่อ",
        "SELECT_TYPEBRAND": "กรุณาเลือกประเภทรถยนต์",
        "SELECT_TYPECAR": "กรุณาเลือกยี่ห้อรถ",
        "SELECT_TYPECAREER": "กรุณาเลือกประเภทอาชีพ",
        "SELECT_TYPEEDUCATION": "กรุณาเลือกระดับการศึกษา",
        "SELECT_TYPEINCOME": "กรุณาเลือกรายได้ต่อเดือน",
        "TITLE_REMARK_CAR": "หมายเหตุประเภทรถยนต์",
        "TITLE_REMARK_CAREER": "โปรดระบุรายละเอียดอาชีพอื่นๆ",
        "final":"แก้ไขข้อมูลสำเร็จ"
    },
    "formprofile5": {
        "etc_input": "อื่นๆโปรดระบุข้อมูล",
        "title_typecars": "กิจกรรมที่ท่านสนใจ",
        "title_entertainment": "เอ็นเตอร์เทนเมนท์",
        "title_listmusic": "ฟังเพลง",
        "title_listconcert": "คอนเสิร์ต",
        "title_listcontry_concert": "คอนเสิร์ตลูกทุ่ง",
        "title_listmovie": "ภาพยนตร์",
        "title_liststage_play": "ละครเวที",
        "title_listother": "อื่นๆโปรดระบุ",
        "title_typesport": "ด้านกีฬา",
        "title_listfitness": "ฟิตเนส",
        "title_listrun": "วิ่ง",
        "title_bicycle": "ปั่นจักรยาน",
        "title_football": "ฟุตบอล",
        "title_listoutside": "ด้านกิจกรรมนอกบ้าน",
        "title_listshopping": "ช้อปปิ้ง",
        "title_listbeauty": "ความงาม",
        "title_listrestaurant": "ร้านอาหาร",
        "title_listpub": "สถานบันเทิง",
        "title_listmom": "กิจกรรมแม่และเด็ก",
        "title_listrally": "แรลลี่",
        "title_listadventure": "การผจญภัย",
        "title_listtakephoto": "ถ่ายภาพ",
        "title_listmakemerit": "ไหว้พระและการทำบุญ",
        "title_listhoroscope": "ดูดวงและฮวงจุ้ย",
        "title_listtravelout": "ท่องเที่ยวต่างประเทศ",
        "title_listtravelin": "ท่องเที่ยวในประเทศ",
        "title_listin_house": "ด้านกิจกรรมในบ้าน",
        "title_listcook": "ทำอาหาร",
        "title_listpastries": "ทำขนม",
        "title_listdecorate": "ตกแต่งบ้าน",
        "title_listgardening": "ทำสวน",
        "title_listread": "อ่านหนังสือ",
        "title_listplaygame": "เล่นเกมส์",
        "title_listinternet": "อินเทอร์เน็ต",
        "title_listyourinterested": "ลักษณะกิจกรรมที่ท่านสนใจ",
        "title_listactivitieswithfriend": "กิจกรรมสำหรับเพื่อนฝูง",
        "title_listactivitieswithcouple": "กิจกรรมสำหรับคู่รัก",
        "title_listactivitieswithfamily": "กิจกรรมสำหรับครอบครัว",
        "title_listactivitiesnone": "ไม่สนใจทำกิจกรรม",
        "button_nextstep": "ส่งข้อมูลเพื่อสมัครสมาชิก",
        "button_edit":"แก้ไขข้อมูลสำเร็จ"
    },
    "inform_updateprofile": {
        "title_list":"เลือกหัวข้อที่ต้องการ",
        "title_list1": "แจ้งปรับปรุงข้อมูลสมาชิกพีทีแม็กซ์การ์ด",
        "title_list2": "เปลี่ยนหมายเลขโทรศัพท์มือถือ",
        "title_list3": "ข้อมูลที่อยู่",
        "check_remind": "ต้องการให้ข้อมูลเพิ่มเติม เพื่อสิทธิประโยชน์ที่ตรงกับความต้องการของท่าน",
        "must_remind": "<div class='remind'>*ระบบรองรับการอัพโหลดรูปได้ไม่เกิน 3 รูป รวมกันไม่เกิน 10M</div>",
        "title_additional": "ระบุรายละเอียด",
        "button_nextstep": "ส่งข้อมูล",
        "select_edit": "กรุณากรอกข้อมูลแจ้งปัญหาการใช้งาน",
        "alert_success":"ส่งข้อมูลสำเร็จ",
        "image_oversize": "* ไม่สามารถอัพโหลดรูปภาพได้ อาจจะเกิดจากไฟล์มีขนาดเกิน 3 MB"
    },
    "reset_pass": {
        "resetold_input": "รหัสผ่านเก่า",
        "resetnew_input": "รหัสผ่านใหม่",
        "resetfirm_input": "ยืนยันรหัสผ่าน",
        "button_change": "เปลี่ยนรหัสผ่านใหม่"
    },
    "history": {
        "date_title": "วันที่ทำรายการ",
        "month_list": "เลือกเดือน",
        "year_list": "เลือกปี",
        "button_search": "ค้นหา",
        "jan": "มกราคม",
        "feb": "กุมภาพันธ์",
        "march": "มีนาคม",
        "april": "เมษายน",
        "may":"พฤษภาคม",
        "june":"มิถุนายน",
        "july": "กรกฎาคม",
        "august": "สิงหาคม",
        "sep":"กันยายน",
        "oct":"ตุลาคม",
        "november":"พฤศจิกายน",
        "december":"ธันวาคม",
        "datanull": "ไม่พบข้อมูล",
        "estamp":"E-Stamp ที่หมดอายุ",
        "pointexpried":"E-Stamp ที่หมดอายุ",
        "select_month":"กรุณาเลือกเดือน",
        "select_year": "กรุณาเลือกปี"
    }
}